Lecture 3 - Data Wrangling
…
summarize()

arrange()

mutate()

mutate() works on columns, “adding new variables or changing current variables that are functions of existing variables”. So you can set a new variable (or overwrite a current variable). Let’s calculate average air speed in flights (calling it a new variable “speed_km.h”), calculated with a normal algebraic formula, and store the result in a newly named data frame.

flights1 <- flights|>
  mutate(speed_km.h = distance / air_time * 60,
         .before = 1)
flights1

# A tibble: 435,352 × 20
   speed_km.h  year month   day dep_time sched_dep_time dep_delay arr_time
        <dbl> <dbl> <dbl> <dbl>    <dbl>          <dbl>     <dbl>    <dbl>
 1       409.  2023     1     1        1           2038       203      328
 2       422.  2023     1     1       18           2300        78      228
 3       498.  2023     1     1       31           2344        47      500
 4       353.  2023     1     1       33           2140       173      238
 5       366   2023     1     1       36           2048       228      223
 6       423.  2023     1     1      503            500         3      808
 7       493.  2023     1     1      520            510        10      948
 8       363.  2023     1     1      524            530        -6      645
 9       326.  2023     1     1      537            520        17      926
10       407.  2023     1     1      547            545         2      845
# ℹ 435,342 more rows
# ℹ 12 more variables: sched_arr_time <dbl>, arr_delay <dbl>, carrier <chr>,
#   flight <dbl>, tailnum <chr>, origin <chr>, dest <chr>, air_time <dbl>,
#   distance <dbl>, hour <dbl>, minute <dbl>, time_hour <dttm>

Note that mutate is working row-by-row to do the calculation with values in the named columns.

What if we wanted to create a new variable that showed the origin and destination of each flight? We can work with characters, just not numerically. str_c() works to concatenate a string. It will take quoted strings as literal, but unquoted words it will look for a variable and use that value:

flights2 <- flights1|>
  mutate(route = str_c(origin, "-to-", dest),
         .before = 1)
flights2

# A tibble: 435,352 × 21
   route speed_km.h  year month   day dep_time sched_dep_time dep_delay arr_time
   <chr>      <dbl> <dbl> <dbl> <dbl>    <dbl>          <dbl>     <dbl>    <dbl>
 1 EWR-…       409.  2023     1     1        1           2038       203      328
 2 JFK-…       422.  2023     1     1       18           2300        78      228
 3 JFK-…       498.  2023     1     1       31           2344        47      500
 4 JFK-…       353.  2023     1     1       33           2140       173      238
 5 EWR-…       366   2023     1     1       36           2048       228      223
 6 EWR-…       423.  2023     1     1      503            500         3      808
 7 JFK-…       493.  2023     1     1      520            510        10      948
 8 EWR-…       363.  2023     1     1      524            530        -6      645
 9 EWR-…       326.  2023     1     1      537            520        17      926
10 EWR-…       407.  2023     1     1      547            545         2      845
# ℹ 435,342 more rows
# ℹ 12 more variables: sched_arr_time <dbl>, arr_delay <dbl>, carrier <chr>,
#   flight <dbl>, tailnum <chr>, origin <chr>, dest <chr>, air_time <dbl>,
#   distance <dbl>, hour <dbl>, minute <dbl>, time_hour <dttm>
…
TipExtra Thinking

What’s the timezone for the time_hour variable of the flights data?

select()

select() selects columns by name, and the ordering of the names can be used to reorder the columns.

flights2|>
  select(year, route, speed_km.h)

# A tibble: 435,352 × 3
    year route      speed_km.h
   <dbl> <chr>           <dbl>
 1  2023 EWR-to-SMF       409.
 2  2023 JFK-to-ATL       422.
 3  2023 JFK-to-BQN       498.
 4  2023 JFK-to-CHS       353.
 5  2023 EWR-to-DTW       366 
 6  2023 EWR-to-MIA       423.
 7  2023 JFK-to-BQN       493.
 8  2023 EWR-to-ORD       363.
 9  2023 EWR-to-IAH       326.
10  2023 EWR-to-FLL       407.
# ℹ 435,342 more rows

This can be done by negation.

flights2|>
  select(-route, -speed_km.h, -year)

# A tibble: 435,352 × 18
   month   day dep_time sched_dep_time dep_delay arr_time sched_arr_time
   <dbl> <dbl>    <dbl>          <dbl>     <dbl>    <dbl>          <dbl>
 1     1     1        1           2038       203      328              3
 2     1     1       18           2300        78      228            135
 3     1     1       31           2344        47      500            426
 4     1     1       33           2140       173      238           2352
 5     1     1       36           2048       228      223           2252
 6     1     1      503            500         3      808            815
 7     1     1      520            510        10      948            949
 8     1     1      524            530        -6      645            710
 9     1     1      537            520        17      926            818
10     1     1      547            545         2      845            852
# ℹ 435,342 more rows
# ℹ 11 more variables: arr_delay <dbl>, carrier <chr>, flight <dbl>,
#   tailnum <chr>, origin <chr>, dest <chr>, air_time <dbl>, distance <dbl>,
#   hour <dbl>, minute <dbl>, time_hour <dttm>

..and even by position. The select() help file shows other ways of selecting variables using tidyselect syntax.

flights2|>
  select(1,2)

# A tibble: 435,352 × 2
   route      speed_km.h
   <chr>           <dbl>
 1 EWR-to-SMF       409.
 2 JFK-to-ATL       422.
 3 JFK-to-BQN       498.
 4 JFK-to-CHS       353.
 5 EWR-to-DTW       366 
 6 EWR-to-MIA       423.
 7 JFK-to-BQN       493.
 8 EWR-to-ORD       363.
 9 EWR-to-IAH       326.
10 EWR-to-FLL       407.
# ℹ 435,342 more rows

filter()

filter() works by conditionally selecting rows in the dataframe where some condition is met. Let’s filter flights only that came out of JFK and select a few columns.

flights_jfk <- flights2|>
  filter(origin == "JFK")|>
  select(speed_km.h, year,month, day, origin, route)
flights_jfk

# A tibble: 133,048 × 6
   speed_km.h  year month   day origin route     
        <dbl> <dbl> <dbl> <dbl> <chr>  <chr>     
 1       422.  2023     1     1 JFK    JFK-to-ATL
 2       498.  2023     1     1 JFK    JFK-to-BQN
 3       353.  2023     1     1 JFK    JFK-to-CHS
 4       493.  2023     1     1 JFK    JFK-to-BQN
 5       376.  2023     1     1 JFK    JFK-to-PBI
 6       387.  2023     1     1 JFK    JFK-to-MIA
 7       494.  2023     1     1 JFK    JFK-to-SJU
 8       447.  2023     1     1 JFK    JFK-to-SEA
 9       396.  2023     1     1 JFK    JFK-to-PHX
10       403.  2023     1     1 JFK    JFK-to-MIA
# ℹ 133,038 more rows

We can see this now has a significantly reduced number of rows (133048) because we’ve excluded the rows where the origin is NOT JFK. Note that == is the equality operator - filtering uses logic, evaluating each possibility as TRUE/FALSE conditional statements. filter(origin == "JFK") implies we are looking for cases where origin is EXACTLY matching the string “JFK”. We could also do filter(origin != "JFK") or select multiple conditions using operators like < (less than) or <= (less than or equal to) or & (AND operator) or | (OR operator).

Let’s use filter to find NA cases of speed_km.h.

flights2|>
  filter(is.na(speed_km.h))

# A tibble: 12,534 × 21
   route speed_km.h  year month   day dep_time sched_dep_time dep_delay arr_time
   <chr>      <dbl> <dbl> <dbl> <dbl>    <dbl>          <dbl>     <dbl>    <dbl>
 1 EWR-…         NA  2023     1     1      753            730        23     1211
 2 JFK-…         NA  2023     1     1      949            900        49       NA
 3 LGA-…         NA  2023     1     1     2000           1959         1     1537
 4 EWR-…         NA  2023     1     1     2151           2159        -8     1110
 5 LGA-…         NA  2023     1     1       NA           2245        NA       NA
 6 EWR-…         NA  2023     1     1       NA           1655        NA       NA
 7 EWR-…         NA  2023     1     1       NA            920        NA       NA
 8 LGA-…         NA  2023     1     1       NA            959        NA       NA
 9 EWR-…         NA  2023     1     1       NA           2030        NA       NA
10 LGA-…         NA  2023     1     2      711            715        -4     1313
# ℹ 12,524 more rows
# ℹ 12 more variables: sched_arr_time <dbl>, arr_delay <dbl>, carrier <chr>,
#   flight <dbl>, tailnum <chr>, origin <chr>, dest <chr>, air_time <dbl>,
#   distance <dbl>, hour <dbl>, minute <dbl>, time_hour <dttm>

TipExtra Thinking

Why would speed be NA?

arrange()

arrange() orders/sorts rows according to the values of selected columns. Let’s arrange the data frame to view the worst delays first. arrange() will by default arrange in numeric order, but we actually want the largest values first so we use desc() to get the descending order of the variable to arrange on. Let’s also turn this variable into hours rather than minutes.

flights2 |>
  mutate(dep_delay_h = dep_delay/60)|>
  arrange(desc(dep_delay_h))|>
  relocate(dep_delay_h) #relocate can move columns without selecting, by default it does to the front of the line

# A tibble: 435,352 × 22
   dep_delay_h route      speed_km.h  year month   day dep_time sched_dep_time
         <dbl> <chr>           <dbl> <dbl> <dbl> <dbl>    <dbl>          <dbl>
 1        30.2 EWR-to-CLT       369.  2023    12    17     1953           1340
 2        29.7 EWR-to-ORD       423.  2023    10     1     1240            659
 3        29.0 LGA-to-DCA       306.  2023     4    25     1201            659
 4        27.8 LGA-to-DFW       374.  2023     2     7     2045           1700
 5        27.1 JFK-to-CLT       406.  2023     4    20      926            619
 6        26.9 LGA-to-CLT       375.  2023    10    29      856            600
 7        26.0 JFK-to-CLT       396.  2023     4    30     1818           1617
 8        26.0 EWR-to-DFW       386.  2023     3    17     2027           1830
 9        25.1 EWR-to-ORD       332.  2023     3    29      633            525
10        23.9 EWR-to-ORD       385.  2023     3    19     1154           1201
# ℹ 435,342 more rows
# ℹ 14 more variables: dep_delay <dbl>, arr_time <dbl>, sched_arr_time <dbl>,
#   arr_delay <dbl>, carrier <chr>, flight <dbl>, tailnum <chr>, origin <chr>,
#   dest <chr>, air_time <dbl>, distance <dbl>, hour <dbl>, minute <dbl>,
#   time_hour <dttm>
…
Summarize is much more useful when done on groups of data, which we’ll work on next…

Grouped manipulation

The split-apply-combine approach to data manipulation is the basis for breaking up these summaries into pieces and then putting them back together (Wickham 2011). Really, we often want to manipulate or summarize data based on group identification. dplyr’s group_by() does exactly this - we can plug this verb into our pipe. R will treat each unique value in the variable we plug into group_by() separately (split), apply a function to that group, and then keep everything together as a dataframe (combine). So let’s say we want to summarize the mean speeds for flights departing from JFK, as well as the number of flights, depending on where they go. Simply add in group_by(dest) before the summarize function.

flights_by_dest <- flights2|>
  filter(origin == "JFK")|>
  group_by(dest)|>
  summarize(mean_speed = mean(speed_km.h, na.rm = TRUE),
            n_flights = n())|>
  ungroup()
flights_by_dest

# A tibble: 71 × 3
   dest  mean_speed n_flights
   <chr>      <dbl>     <int>
 1 ABQ         449.       217
 2 ACK         294.       444
 3 ATL         413.      3772
 4 AUS         432.      2673
 5 BGR         387.       516
 6 BNA         390.      2310
 7 BOS         288.      6432
 8 BQN         488.       623
 9 BTV         339.      1660
10 BUF         320.      3087
# ℹ 61 more rows
…
With only information about flights2 and your grouping variable dest, what should the nrow(flights_by_dest) be?

It is good practice to ungroup() your data frame, because R may continue to treat it as a grouped data frame, potentially affecting subsequent operations.

We can also do grouped mutates. Maybe we want to calculate deviation from a mean.

flights2|>
  filter(origin == "JFK")|>
  group_by(dest)|>
  mutate(mean_speed = mean(speed_km.h, na.rm = TRUE),
         .after = speed_km.h)|>
  arrange(dest)

# A tibble: 133,048 × 22
# Groups:   dest [71]
   route      speed_km.h mean_speed  year month   day dep_time sched_dep_time
   <chr>           <dbl>      <dbl> <dbl> <dbl> <dbl>    <dbl>          <dbl>
 1 JFK-to-ABQ       378.       449.  2023     3    26     1959           1930
 2 JFK-to-ABQ       376.       449.  2023     3    27     1949           1930
 3 JFK-to-ABQ       407.       449.  2023     3    28     2107           1930
 4 JFK-to-ABQ       407.       449.  2023     3    29     2048           1930
 5 JFK-to-ABQ       371.       449.  2023     3    30     1951           1930
 6 JFK-to-ABQ       400.       449.  2023     3    31     1958           1930
 7 JFK-to-ABQ        NA        449.  2023     4     1       NA           1930
 8 JFK-to-ABQ       425.       449.  2023     4     2     2049           1930
 9 JFK-to-ABQ       436.       449.  2023     4     3     1930           1930
10 JFK-to-ABQ       417.       449.  2023     4     4     1955           1930
# ℹ 133,038 more rows
# ℹ 14 more variables: dep_delay <dbl>, arr_time <dbl>, sched_arr_time <dbl>,
#   arr_delay <dbl>, carrier <chr>, flight <dbl>, tailnum <chr>, origin <chr>,
#   dest <chr>, air_time <dbl>, distance <dbl>, hour <dbl>, minute <dbl>,
#   time_hour <dttm>

Now mean_speed is replicated however many times dest appears in the data frame because we told mean() to operate on each entire group with group_by(dest). This is useful if you want to an operation that requires both a summarized value (such as a mean or a count for a group) and the individual values. For example, calculating percentages or deviations. Here’s the latter (this is now what’s known as a mean-centered value):

flights2|>
  filter(origin == "JFK")|>
  group_by(dest)|>
  mutate(mean_speed = mean(speed_km.h, na.rm = TRUE),
         speed_deviation = speed_km.h - mean_speed,
         .after = speed_km.h)|>
  arrange(dest)

# A tibble: 133,048 × 23
# Groups:   dest [71]
   route      speed_km.h mean_speed speed_deviation  year month   day dep_time
   <chr>           <dbl>      <dbl>           <dbl> <dbl> <dbl> <dbl>    <dbl>
 1 JFK-to-ABQ       378.       449.           -71.6  2023     3    26     1959
 2 JFK-to-ABQ       376.       449.           -72.9  2023     3    27     1949
 3 JFK-to-ABQ       407.       449.           -42.1  2023     3    28     2107
 4 JFK-to-ABQ       407.       449.           -42.1  2023     3    29     2048
 5 JFK-to-ABQ       371.       449.           -78.0  2023     3    30     1951
 6 JFK-to-ABQ       400.       449.           -49.5  2023     3    31     1958
 7 JFK-to-ABQ        NA        449.            NA    2023     4     1       NA
 8 JFK-to-ABQ       425.       449.           -24.7  2023     4     2     2049
 9 JFK-to-ABQ       436.       449.           -12.9  2023     4     3     1930
10 JFK-to-ABQ       417.       449.           -32.8  2023     4     4     1955
# ℹ 133,038 more rows
# ℹ 15 more variables: sched_dep_time <dbl>, dep_delay <dbl>, arr_time <dbl>,
#   sched_arr_time <dbl>, arr_delay <dbl>, carrier <chr>, flight <dbl>,
#   tailnum <chr>, origin <chr>, dest <chr>, air_time <dbl>, distance <dbl>,
#   hour <dbl>, minute <dbl>, time_hour <dttm>

flights2|>
  filter(origin == "JFK")|>
  group_by(dest)|>
  mutate(mean_speed = mean(speed_km.h, na.rm = TRUE),
         speed_deviation = speed_km.h - mean_speed,
         .after = speed_km.h)|>
  arrange(dest)

# A tibble: 133,048 × 23
# Groups:   dest [71]
   route      speed_km.h mean_speed speed_deviation  year month   day dep_time
   <chr>           <dbl>      <dbl>           <dbl> <dbl> <dbl> <dbl>    <dbl>
 1 JFK-to-ABQ       378.       449.           -71.6  2023     3    26     1959
 2 JFK-to-ABQ       376.       449.           -72.9  2023     3    27     1949
 3 JFK-to-ABQ       407.       449.           -42.1  2023     3    28     2107
 4 JFK-to-ABQ       407.       449.           -42.1  2023     3    29     2048
 5 JFK-to-ABQ       371.       449.           -78.0  2023     3    30     1951
 6 JFK-to-ABQ       400.       449.           -49.5  2023     3    31     1958
 7 JFK-to-ABQ        NA        449.            NA    2023     4     1       NA
 8 JFK-to-ABQ       425.       449.           -24.7  2023     4     2     2049
 9 JFK-to-ABQ       436.       449.           -12.9  2023     4     3     1930
10 JFK-to-ABQ       417.       449.           -32.8  2023     4     4     1955
# ℹ 133,038 more rows
# ℹ 15 more variables: sched_dep_time <dbl>, dep_delay <dbl>, arr_time <dbl>,
#   sched_arr_time <dbl>, arr_delay <dbl>, carrier <chr>, flight <dbl>,
#   tailnum <chr>, origin <chr>, dest <chr>, air_time <dbl>, distance <dbl>,
#   hour <dbl>, minute <dbl>, time_hour <dttm>

You can group by as many variables as you’d like, just add them like group_by(dest, month). Typically, you’ll want to group by variables that are NOT numeric.

slice_*() family of functions are also helpful in a grouped context for extracting whole rows, like the first or last row, or two with the smallest or largest value in some column. Let’s say you want the first flight of the year to each destination. slice_head() slices the rows at the head of the dataframe, supplying it with the argument n = Whatever number of rows you want to extract.

flights2|>
  relocate(time_hour, dest)|>
  group_by(dest)|>
  arrange(time_hour)|> #why arrange?
  slice_head(n=1)

# A tibble: 118 × 21
# Groups:   dest [118]
   time_hour           dest  route      speed_km.h  year month   day dep_time
   <dttm>              <chr> <chr>           <dbl> <dbl> <dbl> <dbl>    <dbl>
 1 2023-03-26 19:00:00 ABQ   JFK-to-ABQ       378.  2023     3    26     1959
 2 2023-05-11 10:00:00 ACK   JFK-to-ACK       271.  2023     5    11      959
 3 2023-04-02 09:00:00 AGS   LGA-to-AGS       384.  2023     4     2      943
 4 2023-01-01 15:00:00 ALB   LGA-to-ALB       272   2023     1     1     1545
 5 2023-06-02 15:00:00 ANC   EWR-to-ANC        NA   2023     6     2     1635
 6 2023-01-01 06:00:00 ATL   LGA-to-ATL       369.  2023     1     1      613
 7 2023-01-01 08:00:00 AUS   JFK-to-AUS       424.  2023     1     1      759
 8 2023-01-01 08:00:00 AVL   LGA-to-AVL       207.  2023     1     1      832
 9 2023-03-25 19:00:00 AVP   EWR-to-AVP       215.  2023     3    25     1920
10 2023-01-02 12:00:00 BDL   LGA-to-BDL       224.  2023     1     2     1156
# ℹ 108 more rows
# ℹ 13 more variables: sched_dep_time <dbl>, dep_delay <dbl>, arr_time <dbl>,
#   sched_arr_time <dbl>, arr_delay <dbl>, carrier <chr>, flight <dbl>,
#   tailnum <chr>, origin <chr>, air_time <dbl>, distance <dbl>, hour <dbl>,
#   minute <dbl>
…
