07_Lecture_Causes-and-Models
…
You would still need to make multiple measurements in each of these treatments nested within blocks. How could we create this dataframe to have five individuals within each of these Treatment/Block groups?

f|>
  expand_grid(individual = seq(1,5))

# A tibble: 45 × 3
   Treatment Block  individual
   <chr>     <chr>       <int>
 1 TrtA      Block1          1
 2 TrtA      Block1          2
 3 TrtA      Block1          3
 4 TrtA      Block1          4
 5 TrtA      Block1          5
 6 TrtA      Block2          1
 7 TrtA      Block2          2
 8 TrtA      Block2          3
 9 TrtA      Block2          4
10 TrtA      Block2          5
# ℹ 35 more rows
…
